<svg width="32" height="32" viewBox="0 0 32 32" fill="none" xmlns="http://www.w3.org/2000/svg">
<path d="M17.0755 19.2274H15.9998C15.9998 16.257 18.4077 13.849 21.3781 13.849H22.4538C22.4538 16.8194 20.0458 19.2274 17.0755 19.2274Z" fill="#7B9F2D"/>
<path d="M17.0755 11.6976H15.9998C15.9998 8.72717 18.4077 6.31921 21.3781 6.31921H22.4538C22.4538 9.28961 20.0458 11.6976 17.0755 11.6976Z" fill="#7B9F2D"/>
<path d="M15.9998 4.16743H17.0754C19.1547 4.16743 20.8403 2.48186 20.8403 0.402588H19.7646C17.6853 0.402588 15.9998 2.08816 15.9998 4.16743Z" fill="#D2FF72"/>
<path d="M9.57852 20.7107L9.54571 20.6919L5.77388 16.5011C5.21419 15.8811 4.25786 15.8322 3.6378 16.3919C3.63505 16.3944 3.63229 16.397 3.62953 16.3995V8.56106C3.64883 7.67935 2.98111 6.93377 2.10262 6.85612C1.21277 6.80832 0.45268 7.4909 0.40488 8.38068C0.403267 8.41026 0.402527 8.43998 0.402527 8.46963V18.6492C0.402325 19.3805 0.588752 20.0996 0.944126 20.7387L5.78087 29.4452V31.5965H13.3106V27.1459C13.3103 24.4869 11.8864 22.0315 9.57852 20.7107Z" fill="#F2BB80"/>
<path d="M15.9997 24.6053C15.7027 24.6053 15.4619 24.3645 15.4619 24.0675V3.62975C15.4619 3.33273 15.7027 3.09192 15.9997 3.09192C16.2968 3.09192 16.5376 3.33273 16.5376 3.62975V24.0675C16.5376 24.3645 16.2968 24.6053 15.9997 24.6053Z" fill="#98C33B"/>
<path d="M9.54581 13.849H10.6215C13.5919 13.849 15.9998 16.257 15.9998 19.2274H14.9242C11.9538 19.2274 9.54581 16.8194 9.54581 13.849Z" fill="#98C33B"/>
<path d="M9.54581 6.31921H10.6215C13.5919 6.31921 15.9998 8.72717 15.9998 11.6976H14.9242C11.9538 11.6976 9.54581 9.28961 9.54581 6.31921Z" fill="#98C33B"/>
<path d="M15.9997 4.16755H14.9241C12.8448 4.16755 11.1592 2.48198 11.1592 0.40271H12.2349C14.3141 0.40271 15.9997 2.08828 15.9997 4.16755Z" fill="#D2FF72"/>
<path d="M7.89234 23.9189C7.7408 23.919 7.59633 23.8551 7.49434 23.743L3.08786 18.8961C2.34935 18.0855 2.379 16.8374 3.15509 16.0628C3.36875 15.8564 3.7092 15.8623 3.91559 16.0759C4.11694 16.2843 4.11694 16.6148 3.91559 16.8233C3.54616 17.1923 3.53218 17.7866 3.88386 18.1727L8.2898 23.0191C8.48974 23.2388 8.47367 23.579 8.25396 23.7789C8.155 23.8689 8.02612 23.9188 7.89234 23.9189Z" fill="#E8A16D"/>
<path d="M18.6889 27.1459V31.5965H26.2186V29.4452L31.0553 20.7387C31.4107 20.0996 31.5971 19.3805 31.5969 18.6492V8.56106C31.6162 7.67935 30.9485 6.93377 30.07 6.85612C29.1802 6.80832 28.4201 7.4909 28.3723 8.38068C28.3707 8.41026 28.3699 8.43998 28.3699 8.46963V16.3995C27.7541 15.8352 26.7974 15.877 26.2331 16.4928C26.2305 16.4956 26.2281 16.4984 26.2256 16.5011L22.4537 20.6919L22.4209 20.7107C20.1131 22.0315 18.6891 24.4869 18.6889 27.1459Z" fill="#F2BB80"/>
<path d="M24.1071 23.9189C24.2586 23.919 24.4031 23.8551 24.5051 23.743L28.9115 18.8961C29.65 18.0855 29.6204 16.8374 28.8443 16.0628C28.6306 15.8564 28.2902 15.8623 28.0838 16.0759C27.8824 16.2843 27.8824 16.6148 28.0838 16.8233C28.4532 17.1923 28.4672 17.7866 28.1155 18.1727L23.7096 23.0191C23.5097 23.2388 23.5257 23.579 23.7454 23.7789C23.8444 23.8689 23.9733 23.9188 24.1071 23.9189Z" fill="#E8A16D"/>
</svg>
