<svg width="24" height="24" viewBox="0 0 24 24" fill="none" xmlns="http://www.w3.org/2000/svg">
<path d="M11.1696 21.2902C9.768 22.9514 8.68416 24 8.68416 24C8.68416 24 0 15.5969 0 8.6844C0 3.888 3.888 0 8.68416 0C13.4803 0 17.3683 3.888 17.3683 8.6844C17.3683 9.1296 17.3321 9.58104 17.2644 10.0361C16.4112 10.0483 15.5599 10.2079 14.7518 10.5161C14.9268 9.936 15.0209 9.32112 15.0209 8.6844C15.0209 5.18448 12.1838 2.34744 8.68392 2.34744C5.184 2.34744 2.3472 5.18448 2.3472 8.6844C2.3472 12.1841 5.18448 15.0211 8.68416 15.0211C9.32112 15.0211 9.936 14.9268 10.5158 14.7521C9.70296 16.8847 9.92088 19.32 11.1696 21.2902ZM24 17.369C24 21.0312 21.0312 24 17.369 24C13.7066 24 10.7378 21.0312 10.7378 17.369C10.7378 13.7066 13.7066 10.7378 17.369 10.7378C21.0312 10.7378 24 13.7066 24 17.369ZM21.5484 15.5554L20.4547 14.4614L16.2811 18.6355L14.2834 16.6375L13.1892 17.7314L16.2811 20.8231L21.5484 15.5554Z" fill="currentColor"/>
<circle cx="8.8192" cy="8.58482" r="2.93248" fill="currentColor"/>
</svg>
