<svg width="18" height="18" viewBox="0 0 18 18" fill="none" xmlns="http://www.w3.org/2000/svg">
<path d="M15.8333 15.6667C15.8333 16.5917 15.0916 17.3334 14.1666 17.3334C13.7246 17.3334 13.3007 17.1578 12.9881 16.8453C12.6756 16.5327 12.5 16.1088 12.5 15.6667C12.5 14.7417 13.2416 14.0001 14.1666 14.0001C14.6087 14.0001 15.0326 14.1757 15.3452 14.4882C15.6577 14.8008 15.8333 15.2247 15.8333 15.6667ZM5.83331 14.0001C4.90831 14.0001 4.16665 14.7417 4.16665 15.6667C4.16665 16.1088 4.34224 16.5327 4.6548 16.8453C4.96736 17.1578 5.39129 17.3334 5.83331 17.3334C6.75831 17.3334 7.49998 16.5917 7.49998 15.6667C7.49998 14.7417 6.75831 14.0001 5.83331 14.0001ZM5.99998 11.1917L5.97498 11.2917C5.97498 11.4084 6.06665 11.5001 6.18331 11.5001H15.8333V13.1667H5.83331C5.39129 13.1667 4.96736 12.9912 4.6548 12.6786C4.34224 12.366 4.16665 11.9421 4.16665 11.5001C4.16665 11.2084 4.24165 10.9334 4.36665 10.7001L5.49998 8.65842L2.49998 2.33341H0.833313V0.666748H3.55831L4.34165 2.33341H16.6666C17.125 2.33341 17.5 2.70841 17.5 3.16675C17.5 3.30841 17.4583 3.45008 17.4 3.58341L14.4166 8.97508C14.1333 9.48342 13.5833 9.83342 12.9583 9.83342H6.74998L5.99998 11.1917ZM7.08331 8.16675H8.33331V6.50008H6.29998L7.08331 8.16675ZM9.16665 6.50008V8.16675H11.6666V6.50008H9.16665ZM11.6666 5.66675V4.00008H9.16665V5.66675H11.6666ZM14.2583 6.50008H12.5V8.16675H13.3333L14.2583 6.50008ZM15.65 4.00008H12.5V5.66675H14.725L15.65 4.00008ZM5.11665 4.00008L5.89998 5.66675H8.33331V4.00008H5.11665Z" fill="currentColor"/>
</svg>
