<svg width="24" height="24" viewBox="0 0 24 24" fill="none" xmlns="http://www.w3.org/2000/svg">
<path d="M3 6C3 4.34314 4.34315 3 6 3H8.18182C9.83867 3 11.1818 4.34315 11.1818 6V8.18182C11.1818 9.83867 9.83867 11.1818 8.18182 11.1818H6C4.34314 11.1818 3 9.83867 3 8.18182V6Z" fill="currentColor"/>
<path d="M3 15.8182C3 14.1614 4.34315 12.8182 6 12.8182H8.18182C9.83867 12.8182 11.1818 14.1614 11.1818 15.8182V18.0001C11.1818 19.6569 9.83867 21.0001 8.18182 21.0001H6C4.34314 21.0001 3 19.6569 3 18.0001V15.8182Z" fill="currentColor"/>
<path d="M12.8184 6C12.8184 4.34314 14.1615 3 15.8184 3H18.0002C19.657 3 21.0002 4.34315 21.0002 6V8.18182C21.0002 9.83867 19.657 11.1818 18.0002 11.1818H15.8184C14.1615 11.1818 12.8184 9.83867 12.8184 8.18182V6Z" fill="currentColor"/>
<path d="M12.8184 15.8182C12.8184 14.1614 14.1615 12.8182 15.8184 12.8182H18.0002C19.657 12.8182 21.0002 14.1614 21.0002 15.8182V18.0001C21.0002 19.6569 19.657 21.0001 18.0002 21.0001H15.8184C14.1615 21.0001 12.8184 19.6569 12.8184 18.0001V15.8182Z" fill="currentColor"/>
</svg>
