<svg width="16" height="16" viewBox="0 0 16 16" fill="none" xmlns="http://www.w3.org/2000/svg">
<path fill-rule="evenodd" clip-rule="evenodd" d="M14.5052 7.99999C14.5052 11.5965 11.5947 14.5065 7.99871 14.5065C4.40223 14.5065 1.49219 11.596 1.49219 7.99999C1.49219 4.40351 4.40273 1.49347 7.99871 1.49347C11.5952 1.49347 14.5052 4.40401 14.5052 7.99999ZM5.87913 5.87868C6.07439 5.68342 6.39098 5.68342 6.58624 5.87868L8.00045 7.29289L9.41467 5.87868C9.60993 5.68342 9.92651 5.68342 10.1218 5.87868C10.317 6.07394 10.317 6.39052 10.1218 6.58579L8.70756 8L10.1218 9.41421C10.317 9.60948 10.317 9.92606 10.1218 10.1213C9.92651 10.3166 9.60993 10.3166 9.41467 10.1213L8.00045 8.70711L6.58624 10.1213C6.39098 10.3166 6.0744 10.3166 5.87913 10.1213C5.68387 9.92606 5.68387 9.60948 5.87913 9.41421L7.29335 8L5.87913 6.58579C5.68387 6.39052 5.68387 6.07394 5.87913 5.87868Z" fill="currentColor"/>
</svg>
