<svg width="18" height="18" viewBox="0 0 18 18" fill="none" xmlns="http://www.w3.org/2000/svg">
<path d="M11.8759 6.93549C12.0744 7.13405 12.0744 7.45592 11.8759 7.65439L8.46575 11.0646C8.26718 11.2631 7.94541 11.2631 7.74685 11.0646L6.1235 9.44116C5.92493 9.24269 5.92493 8.92082 6.1235 8.72236C6.32196 8.5238 6.64383 8.5238 6.84229 8.72236L8.10625 9.98631L11.157 6.93549C11.3555 6.73702 11.6774 6.73702 11.8759 6.93549ZM15.5062 9.00005C15.5062 12.5965 12.5957 15.5066 8.99968 15.5066C5.40321 15.5066 2.49316 12.596 2.49316 9.00005C2.49316 5.40357 5.4037 2.49353 8.99968 2.49353C12.5962 2.49353 15.5062 5.40407 15.5062 9.00005ZM14.4896 9.00005C14.4896 5.96551 12.0338 3.51017 8.99968 3.51017C5.96514 3.51017 3.50981 5.9659 3.50981 9.00005C3.50981 12.0346 5.96554 14.4899 8.99968 14.4899C12.0342 14.4899 14.4896 12.0342 14.4896 9.00005Z" fill="currentColor"/>
</svg>
