<svg width="24" height="24" viewBox="0 0 24 24" fill="none" xmlns="http://www.w3.org/2000/svg">
<rect x="5.39966" y="17.3998" width="16.9706" height="1.69706" rx="0.848528" transform="rotate(-45 5.39966 17.3998)" fill="currentColor"/>
<rect x="17.4001" y="18.6" width="16.9706" height="1.69706" rx="0.848528" transform="rotate(-135 17.4001 18.6)" fill="currentColor"/>
</svg>
