<svg width="24" height="24" viewBox="0 0 24 24" fill="none" xmlns="http://www.w3.org/2000/svg">
<path d="M5.40039 4.8C5.40039 4.32261 5.59003 3.86477 5.9276 3.52721C6.26516 3.18964 6.723 3 7.20039 3H16.8004C17.2778 3 17.7356 3.18964 18.0732 3.52721C18.4107 3.86477 18.6004 4.32261 18.6004 4.8V19.2C18.6004 19.6774 18.4107 20.1352 18.0732 20.4728C17.7356 20.8104 17.2778 21 16.8004 21H7.20039C6.723 21 6.26516 20.8104 5.9276 20.4728C5.59003 20.1352 5.40039 19.6774 5.40039 19.2V4.8ZM8.40039 13.2C8.71865 13.2 9.02387 13.0736 9.24892 12.8485C9.47396 12.6235 9.60039 12.3183 9.60039 12C9.60039 11.6817 9.47396 11.3765 9.24892 11.1515C9.02387 10.9264 8.71865 10.8 8.40039 10.8C8.08213 10.8 7.77691 10.9264 7.55186 11.1515C7.32682 11.3765 7.20039 11.6817 7.20039 12C7.20039 12.3183 7.32682 12.6235 7.55186 12.8485C7.77691 13.0736 8.08213 13.2 8.40039 13.2Z" fill="currentColor"/>
</svg>
