<svg width="20" height="21" viewBox="0 0 20 21" fill="none" xmlns="http://www.w3.org/2000/svg">
<path d="M17.1875 2.45752H2.8125C2.4668 2.45752 2.1875 2.73682 2.1875 3.08252V17.4575C2.1875 17.8032 2.4668 18.0825 2.8125 18.0825H17.1875C17.5332 18.0825 17.8125 17.8032 17.8125 17.4575V3.08252C17.8125 2.73682 17.5332 2.45752 17.1875 2.45752ZM15.3828 7.01807H14.1348C13.1562 7.01807 12.9668 7.48291 12.9668 8.1665V9.67236H15.3027L14.998 12.0298H12.9668V18.0825H10.5312V12.0317H8.49414V9.67236H10.5312V7.93408C10.5312 5.9165 11.7637 4.81689 13.5645 4.81689C14.4277 4.81689 15.168 4.88135 15.3848 4.91064V7.01807H15.3828Z" fill="#1F66C7"/>
</svg>
