<svg width="18" height="16" viewBox="0 0 18 16" fill="none" xmlns="http://www.w3.org/2000/svg">
<path d="M9.00037 1.97418C8.09237 1.16262 6.90387 0.712196 5.67037 0.712158C5.01748 0.712819 4.37118 0.838976 3.76865 1.08337C3.16612 1.32776 2.61925 1.68557 2.15953 2.13619C0.198699 4.05029 0.199533 7.04416 2.1612 8.95016L8.2712 14.8893C8.41287 15.1315 8.6862 15.2878 9.00037 15.2878C9.12936 15.2866 9.25627 15.256 9.3709 15.1985C9.48552 15.1409 9.58466 15.0581 9.66037 14.9565L15.8395 8.95016C17.8012 7.04335 17.8012 4.05029 15.8379 2.13295C15.3784 1.68315 14.832 1.32608 14.23 1.08225C13.6281 0.838417 12.9825 0.712644 12.3304 0.712158C11.0969 0.712354 9.90845 1.16276 9.00037 1.97418ZM14.6595 3.27833C15.962 4.55089 15.9629 6.5387 14.6612 7.80478L9.00037 13.3073L3.33953 7.80478C2.03787 6.5387 2.0387 4.55089 3.33787 3.28157C3.9712 2.66919 4.79953 2.33222 5.67037 2.33222C6.5412 2.33222 7.3662 2.66919 7.99453 3.27995L8.4112 3.68497C8.48852 3.76026 8.58036 3.81999 8.68146 3.86074C8.78255 3.90149 8.89092 3.92247 9.00037 3.92247C9.10981 3.92247 9.21818 3.90149 9.31928 3.86074C9.42037 3.81999 9.51221 3.76026 9.58953 3.68497L10.0062 3.27995C11.2662 2.05762 13.4012 2.06086 14.6595 3.27833Z" fill="currentColor"/>
</svg>
