<svg width="18" height="18" viewBox="0 0 18 18" fill="none" xmlns="http://www.w3.org/2000/svg">
<path d="M7.93735 0.0217285C3.56074 0.0217285 0 3.57273 0 7.93742C0 12.3021 3.56077 15.8531 7.93735 15.8531C12.3139 15.8531 15.8747 12.3021 15.8747 7.93742C15.8747 3.57273 12.314 0.0217285 7.93735 0.0217285ZM7.93735 14.5519C4.27814 14.5519 1.30121 11.5845 1.30121 7.93739C1.30121 4.29009 4.27814 1.3229 7.93735 1.3229C11.5966 1.3229 14.5735 4.29009 14.5735 7.93739C14.5735 11.5845 11.5966 14.5519 7.93735 14.5519Z" fill="currentColor"/>
<path d="M17.8083 16.8664L13.536 12.6158C13.2812 12.3625 12.8694 12.3636 12.6158 12.6182C12.3625 12.873 12.3636 13.2848 12.6182 13.5384L16.8905 17.789C17.0176 17.9152 17.1833 17.9783 17.3494 17.9783C17.5166 17.9783 17.6836 17.9143 17.8107 17.7866C18.064 17.5317 18.0629 17.1199 17.8083 16.8664Z" fill="currentColor"/>
</svg>
