<svg width="16" height="17" viewBox="0 0 16 17" fill="none" xmlns="http://www.w3.org/2000/svg">
<path d="M8 0.666748C7.17591 0.666748 6.37033 0.911119 5.68512 1.36896C4.99992 1.8268 4.46587 2.47754 4.1505 3.2389C3.83514 4.00026 3.75262 4.83804 3.91339 5.64629C4.07417 6.45455 4.471 7.19697 5.05372 7.77969C5.63644 8.36241 6.37887 8.75925 7.18712 8.92002C7.99538 9.08079 8.83315 8.99828 9.59451 8.68291C10.3559 8.36755 11.0066 7.8335 11.4645 7.14829C11.9223 6.46309 12.1667 5.6575 12.1667 4.83341C12.1667 3.72835 11.7277 2.66854 10.9463 1.88714C10.1649 1.10573 9.10507 0.666748 8 0.666748ZM8 7.33341C7.50555 7.33341 7.0222 7.18679 6.61107 6.91209C6.19995 6.63738 5.87952 6.24694 5.6903 5.79012C5.50108 5.33331 5.45157 4.83064 5.54804 4.34569C5.6445 3.86074 5.8826 3.41528 6.23223 3.06565C6.58186 2.71602 7.02732 2.47791 7.51227 2.38145C7.99723 2.28499 8.49989 2.3345 8.95671 2.52372C9.41352 2.71293 9.80397 3.03337 10.0787 3.44449C10.3534 3.85561 10.5 4.33896 10.5 4.83341C10.5 5.49646 10.2366 6.13234 9.76777 6.60118C9.29893 7.07002 8.66304 7.33341 8 7.33341ZM15.5 16.5001V15.6667C15.5 14.1197 14.8854 12.6359 13.7915 11.542C12.6975 10.448 11.2138 9.83341 9.66667 9.83341H6.33333C4.78624 9.83341 3.30251 10.448 2.20854 11.542C1.11458 12.6359 0.5 14.1197 0.5 15.6667V16.5001H2.16667V15.6667C2.16667 14.5617 2.60565 13.5019 3.38705 12.7205C4.16846 11.9391 5.22826 11.5001 6.33333 11.5001H9.66667C10.7717 11.5001 11.8315 11.9391 12.6129 12.7205C13.3943 13.5019 13.8333 14.5617 13.8333 15.6667V16.5001H15.5Z" fill="currentColor"/>
</svg>
