<svg baseProfile="tiny" xmlns="http://www.w3.org/2000/svg" viewBox="0 0 416 555" overflow="visible" xml:space="preserve">
  <path fill="#E5E5E5" d="M.2.3H416v554.4H.2z"/>
  <path fill="#5F6F3C" d="M218.3 249.1a47.2 47.2 0 0 0 44.7 5.3l11.8 8.4v14.1a6.5 6.5 0 1 0 13 0v-14.1l11.8-8.4a46.7 46.7 0 0 0 50.7-10.3 27 27 0 0 0 2.9-35.7 27 27 0 0 0-34.6-9.1 46.9 46.9 0 0 0-26.4 44.4l-4.3 3v-38.3a46.9 46.9 0 0 0 21-47.3c-2.7-15.9-15.7-23-27.4-23s-24.8 7.1-27.4 23a46.9 46.9 0 0 0 21 47.3v38.3l-4.3-3a46.7 46.7 0 0 0-26.4-44.4 27 27 0 0 0-34.6 9.1 27 27 0 0 0 2.9 35.7c1.5 1.8 3.5 3.5 5.6 5zm100.9-35.2a30 30 0 0 1 4.9-2.9c8.2-4 15 .2 18.4 4.9 3.4 4.7 5 12.6-1.5 19a33.5 33.5 0 0 1-27.7 9.6l17.6-12.5a6.4 6.4 0 0 0 1.5-9 6.4 6.4 0 0 0-9-1.5L305.8 234a34 34 0 0 1 13.4-20.1zM266.1 169c0-1.9.2-3.8.5-5.6 1.5-9 8.8-12.2 14.6-12.2 5.8 0 13.1 3.2 14.6 12.2a34.1 34.1 0 0 1-8.1 28.2V170a6.5 6.5 0 1 0-13 0v21.6a34.1 34.1 0 0 1-8.6-22.6zM220 215.9c2.4-3.4 6.6-6.5 11.8-6.5 2 0 4.2.5 6.6 1.6a33.7 33.7 0 0 1 18.3 23l-17.6-12.5a6.4 6.4 0 0 0-9 1.5 6.4 6.4 0 0 0 1.5 9l17.6 12.5a34 34 0 0 1-27.7-9.6c-6.5-6.4-4.8-14.2-1.5-19z"/>
  <path fill="#98C33B" d="m263.9 71.9 10.5-10.5v50.1a6.5 6.5 0 1 0 13 0V61.4L298 71.9c1.3 1.3 2.9 1.9 4.6 1.9s3.3-.6 4.6-1.9a6.6 6.6 0 0 0 0-9.2l-21.6-21.6a6.6 6.6 0 0 0-9.2 0l-21.6 21.6a6.6 6.6 0 0 0 0 9.2 6.3 6.3 0 0 0 9.1 0z"/>
  <path fill="#5F6F3C" d="M154 253.4a34.2 34.2 0 0 0 35-13.8c5.9-8.3 5-19.2-2.3-26.5a20.2 20.2 0 0 0-26.5-2.3 34.4 34.4 0 0 0-13.8 35l-5 5-5-5a34.4 34.4 0 0 0-13.8-35c-8.3-5.9-19.2-5-26.5 2.3a20.2 20.2 0 0 0-2.3 26.5 34.2 34.2 0 0 0 35 13.8l7.2 7.2v18.8H94c-3 0-5.4 2.4-5.4 5.4 0 3 2.5 1.3 5.5 1.3H166c3 0 5.2 1.7 5.2-1.3s-2.4-5.4-5.4-5.4h-19.1v-18.8l7.3-7.2zm9.3-31.3c.9-.9 1.9-1.8 3-2.6 5-3.5 9.9-1.6 12.7 1.2 2.8 2.8 4.7 7.7 1.2 12.7a23.8 23.8 0 0 1-16.1 9.7l9.6-9.6a5.4 5.4 0 1 0-7.6-7.6l-9.6 9.6c.8-5 3.1-9.7 6.8-13.4zm-46.7 3.9a5.4 5.4 0 1 0-7.6 7.6l9.6 9.6a24.1 24.1 0 0 1-16.1-9.7c-3.5-5-1.6-9.9 1.2-12.7 1.7-1.7 4.2-3.1 7.1-3.1 1.8 0 3.7.5 5.6 1.9a23.8 23.8 0 0 1 9.7 16.1l-9.5-9.7z"/>
  <path fill="#98C33B" d="m123.7 144.6 10.5-10.5v50.1a6.5 6.5 0 1 0 13 0V134l10.5 10.5c1.3 1.3 2.9 1.9 4.6 1.9s3.3-.6 4.6-1.9a6.6 6.6 0 0 0 0-9.2l-21.6-21.6a6.6 6.6 0 0 0-9.2 0l-21.6 21.6a6.6 6.6 0 0 0 0 9.2 6.5 6.5 0 0 0 9.2.1z"/>
  <path fill="#683600" d="M97.5 277.5H88a31.2 31.2 0 0 0-30.8 26.1h-11a5.2 5.2 0 0 0-5.2 5.2v109.7c0 2.9 2.3 5.2 5.2 5.2H370c2.9 0 5.2-2.3 5.2-5.2V308.8c0-2.9-2.3-5.2-5.2-5.2h-10.9a31.3 31.3 0 0 0-30.9-26.1h-9.5m-54.1 0h-113m156.3 0h-11m-10.4 0h-11m-134.7 0h-11m-10.4 0h-11M88 287.9h240.2c9.5 0 17.8 6.5 20.1 15.7h-9.7a5.2 5.2 0 0 0-5.2 5.2v10.4H229v-10.4c0-2.9-2.3-5.2-5.2-5.2h-31.3a5.2 5.2 0 0 0-5.2 5.2v10.4h-62.7a5.2 5.2 0 0 0-5.2 5.2c0 2.9 2.3 5.2 5.2 5.2h62.7v36.6H82.8v-36.6h15.7c2.9 0 5.2-2.3 5.2-5.2 0-2.9-2.3-5.2-5.2-5.2H82.8v-10.4c0-2.9-2.3-5.2-5.2-5.2h-9.7A20.9 20.9 0 0 1 88 287.9zM72.4 413.3H51.5V314h20.9v99.3zm10.4-36.6h104.4v36.6H82.8v-36.6zm135.8 36.6h-20.9V314h20.9v99.3zm10.4 0v-36.6h52.2c2.9 0 5.2-2.3 5.2-5.2s-2.3-5.2-5.2-5.2H229v-36.6h104.4v36.6h-26.1c-2.9 0-5.2 2.3-5.2 5.2s2.3 5.2 5.2 5.2h26.1v36.6H229zm135.8 0h-20.9V314h20.9v99.3z"/>
</svg>
